{
  "baseUrl": "#baseUrl#",
  "env": {
    "something": "test",
    "apiUrl": "#apiUrl#",
    "basicAuthName": "#basicAuthName#",
    "basicAuthPassword": "#basicAuthPassword#",
    "apiBasicAuthName": "#apiBasicAuthName#",
    "apiBasicAuthPassword": "#apiBasicAuthPassword#"
  }
}