<svg width="128px" height="128px" viewBox="0 0 128 128" version="1.1" xmlns="http://www.w3.org/2000/svg" xmlns:xlink="http://www.w3.org/1999/xlink">
    <g id="Page-1" stroke="none" stroke-width="1" fill="none" fill-rule="evenodd">
        <g id="calendar" fill="currentColor" fill-rule="nonzero">
            <path d="M126.97076,117.884756 C124.08315,114.997146 122.427634,110.999704 122.427634,106.916678 L122.427634,95.8133645 C122.427634,91.1122963 120.347945,86.9229786 117.10478,83.9979415 L117.10478,21.2919142 C117.10478,15.4206316 112.330355,10.6459571 106.458823,10.6459571 L90.4900117,10.6459571 L90.4900117,2.66155166 C90.4900117,1.19042495 89.2995867,0 87.82846,0 C86.3573333,0 85.1669084,1.19042495 85.1669084,2.66155166 L85.1669084,10.6459571 L37.2604756,10.6459571 L37.2604756,2.66155166 C37.2604756,1.19042495 36.0700507,0 34.598924,0 C33.1280468,0.000249512671 31.9376218,1.19067446 31.9376218,2.66180117 L31.9376218,10.6462066 L10.6459571,10.6462066 C4.77442495,10.6462066 0,15.4206316 0,21.2919142 L0,106.458823 C0,112.330105 4.77442495,117.10478 10.6459571,117.10478 L86.5846394,117.10478 C86.3630721,117.358285 86.1856686,117.645723 85.946885,117.884507 C85.1853723,118.646019 84.9565692,119.789536 85.3697622,120.785092 C85.78046,121.780647 86.7525614,122.427634 87.82846,122.427634 L101.135719,122.427634 C101.135719,125.361903 103.524304,127.750487 106.458573,127.750487 C109.392842,127.750487 111.781427,125.361903 111.781427,122.427634 L125.088686,122.427634 C126.164834,122.427634 127.136686,121.780398 127.547384,120.785092 C127.961076,119.789786 127.732273,118.646269 126.97076,117.884756 Z M5.3228538,21.2919142 C5.3228538,18.3576452 7.7114386,15.9690604 10.6457076,15.9690604 L31.9376218,15.9690604 L31.9376218,21.2919142 C29.0006082,21.2919142 26.614768,23.680499 26.614768,26.614768 C26.614768,29.549037 29.0008577,31.9376218 31.9376218,31.9376218 C34.8746355,31.9376218 37.2604756,29.549037 37.2604756,26.614768 L37.2604756,15.9690604 L85.1669084,15.9690604 L85.1669084,21.2919142 C82.2298947,21.2919142 79.8440546,23.680499 79.8440546,26.614768 C79.8440546,29.549037 82.2301442,31.9376218 85.1669084,31.9376218 C88.103922,31.9376218 90.4897622,29.549037 90.4897622,26.614768 L90.4897622,15.9690604 L106.458573,15.9690604 C109.392842,15.9690604 111.781427,18.3576452 111.781427,21.2919142 L111.781427,37.2607251 L5.3228538,37.2607251 L5.3228538,21.2919142 Z M90.4900117,106.916429 C90.4900117,108.582674 90.1491774,110.213739 89.6264483,111.781926 L10.6459571,111.781926 C7.71168811,111.781926 5.32310331,109.393341 5.32310331,106.459072 L5.32310331,42.5838285 L111.781676,42.5838285 L111.781676,80.8251384 C110.108444,80.2285536 108.334409,79.8443041 106.458823,79.8443041 C97.6530214,79.8443041 90.4900117,87.0073138 90.4900117,95.813115 L90.4900117,106.916429 Z M93.1410838,117.105029 C94.8694581,114.01207 95.8128655,110.487704 95.8128655,106.916429 L95.8128655,95.813115 C95.8128655,89.9418324 100.58729,85.1671579 106.458823,85.1671579 C112.330355,85.1671579 117.10478,89.9415828 117.10478,95.813115 L117.10478,106.916429 C117.10478,110.487704 118.048187,114.01207 119.776561,117.105029 L93.1410838,117.105029 Z" id="Shape"></path>
        </g>
    </g>
</svg>
