
<svg width="128px" height="128px" viewBox="0 0 128 128" version="1.1" xmlns="http://www.w3.org/2000/svg" xmlns:xlink="http://www.w3.org/1999/xlink">
    <!-- Generator: Sketch 50.2 (55047) - http://www.bohemiancoding.com/sketch -->
    <desc>Created with Sketch.</desc>
    <defs></defs>
    <g id="Page-1" stroke="none" stroke-width="1" fill="none" fill-rule="evenodd">
        <g id="cancel" transform="translate(6.000000, 7.000000)" fill="currentColor" fill-rule="nonzero" stroke="currentColor" stroke-width="8">
            <path d="M1.5690189,112.430978 C2.34836484,113.210324 3.32254725,113.599997 4.39414791,113.599997 C5.46574857,113.599997 6.43993099,113.210324 7.21927692,112.430978 L56.9999985,62.6502565 L106.78072,112.430978 C107.560066,113.210324 108.534248,113.599997 109.605849,113.599997 C110.580031,113.599997 111.651632,113.210324 112.430978,112.430978 C113.98967,110.872286 113.98967,108.339412 112.430978,106.78072 L62.6502565,56.9999985 L112.430978,7.21927692 C113.98967,5.66058506 113.98967,3.12771077 112.430978,1.5690189 C110.872286,0.0103270329 108.339412,0.0103270329 106.78072,1.5690189 L56.9999985,51.3497405 L7.21927692,1.5690189 C5.66058506,0.0103270329 3.12771077,0.0103270329 1.5690189,1.5690189 C0.0103270329,3.12771077 0.0103270329,5.66058506 1.5690189,7.21927692 L51.3497405,56.9999985 L1.5690189,106.78072 C0.0103270329,108.339412 0.0103270329,110.872286 1.5690189,112.430978 Z" id="Shape"></path>
        </g>
    </g>
</svg>
