<svg width="128px" height="128px" viewBox="0 0 128 128" version="1.1" xmlns="http://www.w3.org/2000/svg" xmlns:xlink="http://www.w3.org/1999/xlink">
    <g id="Page-1" stroke="none" stroke-width="1" fill="none" fill-rule="evenodd">
        <g id="logo" transform="translate(0.000000, 39.000000)" fill-rule="nonzero">
            <path d="M27.8794521,0.526027397 C28.4931507,1.13972603 28.6684932,2.01643836 29.0191781,2.80547945 C27.9671233,4.20821918 26.3013699,4.82191781 24.8109589,5.69863014 C24.3726027,5.8739726 24.109589,6.1369863 23.6712329,6.4 C23.0575342,6.1369863 21.9178082,5.78630137 21.9178082,4.82191781 C21.4794521,4.12054795 21.0410959,3.41917808 21.0410959,2.63013699 C22.1808219,1.22739726 24.1972603,1.57808219 25.4246575,0.263013699 C26.0383562,0.263013699 26.5643836,-0.263013699 27.1780822,0.175342466 C27.3534247,0.350684932 27.5287671,0.526027397 27.8794521,0.526027397" id="Shape" fill="#231F20"></path>
            <path d="M23.3205479,8.85479452 C24.460274,8.67945205 25.9506849,8.15342466 26.8273973,9.20547945 C27.1780822,9.38082192 27.090411,9.81917808 27.1780822,10.0821918 C27.090411,10.2575342 27.0027397,10.7835616 26.5643836,10.8712329 C26.1260274,10.7835616 25.6,11.2219178 25.0739726,11.4849315 C25.3369863,11.5726027 25.8630137,11.9232877 25.9506849,12.2739726 C26.3013699,12.8 25.9506849,13.4136986 25.9506849,13.939726 C25.6,14.9917808 24.0219178,14.8164384 24.1972603,16.2191781 C22.5315068,16.8328767 21.4794521,18.4986301 19.6383562,18.6739726 C18.5863014,19.5506849 17.2712329,20.339726 16.3945205,21.4794521 C16.0438356,18.2356164 18.3232877,15.1671233 21.0410959,13.7643836 C20.8657534,13.0630137 19.7260274,12.7123288 19.7260274,11.8356164 C19.2876712,11.309589 18.9369863,10.5205479 18.9369863,9.90684932 C20.0767123,9.03013699 21.1287671,7.89041096 22.7068493,8.32876712 C22.7945205,8.50410959 23.1452055,8.50410959 23.3205479,8.85479452" id="Shape" fill="#231F20"></path>
            <path d="M33.6657534,17.8849315 C33.6657534,17.7972603 33.490411,17.6219178 33.4027397,17.5342466 C33.0520548,17.6219178 32.7890411,17.3589041 32.5260274,17.6219178 C32.3506849,17.0082192 31.3863014,17.4465753 31.1232877,16.9205479 C32.1753425,16.569863 33.139726,17.1835616 33.6657534,17.8849315" id="Shape" fill="#FBB53D"></path>
            <polygon id="Shape" fill="#FBB53D" points="32.2630137 18.060274 32.4383562 17.7972603 32.1753425 17.6219178"></polygon>
            <path d="M34.0164384,18.1479452 C33.9287671,18.5863014 33.6657534,18.7616438 33.3150685,18.9369863 L33.6657534,18.3232877 C33.6657534,18.4109589 33.7534247,18.4109589 33.7534247,18.4109589 C33.9287671,18.4109589 34.0164384,18.1479452 34.0164384,18.1479452" id="Shape" fill="#FBB53D"></path>
            <path d="M32.7890411,18.2356164 C32.7013699,18.3232877 32.5260274,18.4986301 32.6136986,18.6739726 C32.7890411,18.5863014 33.139726,18.8493151 33.139726,19.1123288 C33.139726,19.2 33.0520548,19.2 33.0520548,19.2876712 C33.0520548,19.1123288 32.8767123,18.9369863 32.7013699,19.0246575 L32.6136986,19.1123288 C32.6136986,19.4630137 32.7013699,18.9369863 32.5260274,18.9369863 C31.6493151,19.0246575 32.2630137,19.9013699 31.3863014,19.9890411 C31.3863014,19.7260274 31.5616438,19.6383562 31.7369863,19.5506849 C31.4739726,18.9369863 31.1232877,19.6383562 30.860274,19.5506849 L31.2109589,19.2 L31.1232877,19.1123288 C31.2109589,19.1123288 31.7369863,19.2 31.8246575,18.7616438 C32,19.2 32.3506849,18.6739726 32.5260274,18.5863014 C32.5260274,18.4109589 32.5260274,18.1479452 32.7890411,18.2356164" id="Shape" fill="#FBB53D"></path>
            <path d="M30.2465753,19.8136986 C30.1589041,19.7260274 30.1589041,19.5506849 30.3342466,19.4630137 C30.2465753,19.5506849 30.1589041,19.7260274 30.2465753,19.8136986" id="Shape" fill="#FBB53D"></path>
            <path d="M23.8465753,22.0054795 C23.4082192,22.0054795 22.969863,22.0054795 22.7068493,22.3561644 L22.5315068,22.2684932 C22.6191781,21.9178082 23.4082192,22.0931507 23.7589041,21.830137 L23.7589041,22.0054795 L23.8465753,22.0054795 Z" id="Shape" fill="#FBB53D"></path>
            <path d="M21.3917808,24.1972603 C21.3041096,24.3726027 21.1287671,24.3726027 21.0410959,24.3726027 C21.0410959,24.2849315 21.3041096,24.1972603 21.3917808,24.1972603" id="Shape" fill="#FBB53D"></path>
            <path d="M17.0082192,24.8986301 C16.8328767,24.8986301 16.569863,24.9863014 16.3945205,24.8109589 C16.569863,24.6356164 16.8328767,24.8109589 17.0082192,24.6356164 L17.0082192,24.8986301 Z" id="Shape" fill="#FBB53D"></path>
            <path d="M12.8,25.5123288 L13.0630137,25.5123288 C13.2383562,25.4246575 13.2383562,25.3369863 13.3260274,25.1616438 C13.0630137,25.1616438 12.8876712,25.3369863 12.8,25.5123288 Z M13.5013699,24.8986301 L13.2383562,24.8986301 L13.5013699,25.0739726 L13.5013699,24.8986301 Z M15.5178082,16.2191781 C14.9917808,18.060274 13.3260274,17.5342466 12.0109589,18.3232877 C12.0986301,18.4109589 11.5726027,18.4986301 11.1342466,18.5863014 L10.7835616,18.7616438 C9.38082192,18.9369863 8.41643836,19.9013699 7.10136986,20.5150685 C7.1890411,21.1287671 6.4,20.7780822 6.04931507,21.1287671 C5.96164384,21.5671233 5.08493151,21.3917808 5.26027397,22.0054795 C4.64657534,22.4438356 3.85753425,22.8821918 3.59452055,23.4958904 C4.29589041,24.109589 5.26027397,24.0219178 6.04931507,24.1972603 C8.67945205,24.460274 10.9589041,24.109589 13.4136986,24.109589 C14.1150685,24.0219178 14.8164384,23.7589041 15.6054795,23.7589041 L15.6054795,23.8465753 C16.1315068,24.0219178 16.4821918,23.4082192 17.0958904,23.6712329 C17.4465753,23.2328767 18.2356164,23.5835616 18.6739726,23.0575342 C19.4630137,22.7945205 20.6027397,22.969863 21.1287671,22.6191781 L21.1287671,22.7068493 C20.8657534,22.6191781 20.9534247,22.8821918 20.7780822,23.0575342 C20.9534247,23.1452055 21.1287671,23.1452055 21.3917808,23.1452055 C22.2684932,22.2684932 22.969863,23.4082192 23.7589041,22.3561644 C24.109589,21.9178082 24.6356164,21.7424658 25.1616438,21.5671233 L25.3369863,21.830137 C25.6,21.0410959 26.4767123,21.3041096 26.9150685,20.9534247 C26.5643836,21.0410959 26.5643836,21.5671233 26.0383562,21.3041096 C26.3890411,21.9178082 25.5123288,21.9178082 25.3369863,22.2684932 C25.1616438,22.3561644 24.7232877,22.2684932 24.7232877,21.9178082 C24.5479452,22.0931507 24.5479452,22.7945205 24.109589,22.5315068 C23.5835616,22.6191781 22.8821918,22.8821918 22.2684932,23.1452055 C21.6547945,23.2328767 20.7780822,23.5835616 20.0767123,23.4082192 C19.4630137,23.7589041 18.9369863,23.6712329 18.2356164,23.9342466 C17.3589041,24.109589 16.1315068,24.0219178 15.430137,24.5479452 C15.1671233,24.5479452 15.2547945,24.9863014 15.0794521,24.9863014 C15.3424658,24.9863014 15.2547945,25.6876712 15.6931507,25.3369863 C15.5178082,25.3369863 15.3424658,25.6 15.2547945,25.3369863 C14.9041096,25.4246575 14.5534247,25.8630137 14.2027397,25.5123288 C13.6767123,25.7753425 12.9753425,25.6 12.3616438,25.6876712 L12.3616438,25.5123288 C12.7123288,25.8630137 12.6246575,25.1616438 12.9753425,25.0739726 L12.9753425,24.8109589 C12.0109589,25.2493151 10.8712329,25.0739726 9.73150685,25.5123288 C10.0821918,26.1260274 9.11780822,25.6876712 8.94246575,25.8630137 C8.94246575,25.7753425 9.11780822,25.7753425 9.11780822,25.6876712 C7.71506849,25.2493151 7.10136986,26.1260274 5.6109589,25.7753425 L5.26027397,26.2136986 C4.64657534,25.8630137 3.76986301,26.5643836 3.06849315,26.1260274 C2.36712329,26.0383562 1.40273973,25.7753425 1.13972603,25.0739726 C0.876712329,25.1616438 0.789041096,24.9863014 0.789041096,24.7232877 C0.876712329,24.0219178 -0.350684932,23.7589041 0.175342466,22.969863 C-0.175342466,22.5315068 0.263013699,22.0054795 0.350684932,21.5671233 C0.438356164,21.4794521 0.438356164,21.3917808 0.438356164,21.2164384 L0.61369863,21.3917808 C0.964383562,21.1287671 0.964383562,20.7780822 1.13972603,20.4273973 L2.10410959,19.3753425 C2.01643836,19.4630137 2.10410959,19.5506849 2.19178082,19.5506849 C2.27945205,19.5506849 2.36712329,19.3753425 2.54246575,19.3753425 C2.45479452,19.0246575 2.63013699,18.9369863 2.89315068,18.7616438 C3.06849315,18.6739726 3.33150685,18.8493151 3.41917808,18.5863014 C3.24383562,18.060274 4.03287671,18.5863014 4.03287671,17.9726027 C4.73424658,18.060274 4.90958904,17.1835616 5.6109589,17.3589041 C6.57534247,16.3945205 7.97808219,16.3068493 9.11780822,15.5178082 C11.0465753,14.9041096 14.290411,13.4136986 15.5178082,16.2191781 Z" id="Shape" fill="#FBB53D"></path>
            <path d="M8.67945205,25.9506849 C8.59178082,26.1260274 8.50410959,26.0383562 8.41643836,26.0383562 L8.41643836,25.8630137 C8.50410959,25.8630137 8.59178082,25.7753425 8.67945205,25.9506849" id="Shape" fill="#FBB53D"></path>
            <path d="M29.6328767,19.8136986 C29.4575342,19.9890411 29.2821918,20.1643836 29.1068493,19.9890411 L29.0191781,19.9890411 C29.1945205,19.9013699 29.369863,19.7260274 29.6328767,19.8136986" id="Shape" fill="#FBB53D"></path>
            <path d="M17.2712329,30.4219178 C17.5342466,32 16.7452055,33.4027397 15.8684932,34.630137 L15.5178082,34.7178082 L15.6054795,34.630137 L15.5178082,34.5424658 C14.8164384,35.4191781 13.939726,36.2082192 13.7643836,37.3479452 C13.5890411,37.4356164 13.5013699,37.4356164 13.4136986,37.5232877 C13.2383562,36.909589 12.8,36.0328767 13.1506849,35.3315068 C13.0630137,33.4027397 13.939726,31.9123288 14.8164384,30.2465753 C15.430137,29.8958904 15.9561644,28.8438356 16.6575342,29.369863 L17.2712329,30.4219178 Z" id="Shape" fill="#231F20"></path>
            <path d="M13.5013699,43.2219178 C13.7643836,43.7479452 13.6767123,44.2739726 13.5890411,44.8 C13.2383562,44.8876712 12.8,44.8 12.4493151,44.6246575 L12.3616438,44.7123288 C11.9232877,44.4493151 11.4849315,44.0986301 11.4849315,43.5726027 C11.309589,42.8712329 12.2739726,42.9589041 12.3616438,42.4328767 C12.7123288,42.5205479 13.1506849,42.8712329 13.5013699,43.2219178" id="Shape" fill="#231F20"></path>
            <path d="M38.2246575,35.5945205 L38.2246575,38.6630137 C37.4356164,39.1013699 34.3671233,39.2767123 33.5780822,39.2767123 C29.2821918,39.2767123 27.9671233,37.0849315 27.9671233,33.0520548 C27.9671233,28.8438356 29.7205479,26.8273973 34.0164384,26.8273973 C35.5945205,26.8273973 36.7342466,27.090411 38.3123288,27.5287671 L38.3123288,30.2465753 L37.3479452,30.2465753 L37.3479452,29.8082192 C37.0849315,27.8794521 36.2082192,27.4410959 34.1041096,27.4410959 C30.860274,27.4410959 29.8958904,29.8082192 29.8958904,32.7013699 C29.8958904,35.8575342 30.4219178,38.6630137 34.1917808,38.6630137 C36.909589,38.6630137 37.1726027,37.9616438 37.4356164,35.5068493 L38.2246575,35.5068493 L38.2246575,35.5945205 Z" id="Shape" fill="#231F20"></path>
            <path d="M44.6246575,33.2273973 C44.6246575,36.2082192 45.3260274,38.8383562 48.8328767,38.8383562 C52.339726,38.8383562 53.0410959,36.1205479 53.0410959,33.2273973 C53.0410959,30.2465753 52.4273973,27.6164384 48.8328767,27.6164384 C45.3260274,27.7041096 44.6246575,30.3342466 44.6246575,33.2273973 M42.8712329,33.2273973 C42.8712329,28.8438356 44.2739726,27.0027397 48.8328767,27.0027397 C53.3917808,27.0027397 54.7945205,28.8438356 54.7945205,33.2273973 C54.7945205,37.6109589 53.6547945,39.4520548 48.8328767,39.4520548 C44.2739726,39.4520548 42.8712329,37.6109589 42.8712329,33.2273973" id="Shape" fill="#231F20"></path>
            <path d="M69.9616438,29.0191781 L65.7534247,39.1890411 C65.6657534,39.3643836 65.490411,39.3643836 65.4027397,39.2767123 L61.1068493,29.2821918 L61.1068493,37.4356164 C61.1068493,38.5753425 61.369863,38.5753425 62.509589,38.5753425 L62.509589,39.1890411 L60.6684932,39.1890411 L58.8273973,39.1890411 L58.8273973,38.5753425 C59.9671233,38.5753425 60.230137,38.4876712 60.230137,37.4356164 L60.230137,28.9315068 C60.230137,27.7917808 59.8794521,27.7917808 58.8273973,27.7917808 L58.8273973,27.1780822 L60.230137,27.1780822 L61.6328767,27.1780822 L65.9287671,36.8219178 L70.0493151,27.1780822 L71.4520548,27.1780822 L72.8547945,27.1780822 L72.8547945,27.7917808 C71.7150685,27.7917808 71.4520548,27.7917808 71.4520548,28.9315068 L71.4520548,37.4356164 C71.4520548,38.5753425 71.7150685,38.5753425 72.8547945,38.5753425 L72.8547945,39.1890411 L70.6630137,39.1890411 L68.4712329,39.1890411 L68.4712329,38.5753425 C69.6986301,38.5753425 69.9616438,38.4876712 69.9616438,37.4356164 L69.9616438,29.0191781 Z" id="Shape" fill="#231F20"></path>
            <path d="M81.0958904,33.2273973 L81.9726027,33.2273973 C84.1643836,33.2273973 85.6547945,33.139726 85.6547945,30.509589 C85.6547945,27.9671233 84.7780822,27.7917808 82.8493151,27.7917808 L81.1835616,27.7917808 L81.1835616,33.2273973 L81.0958904,33.2273973 Z M81.0958904,37.4356164 C81.0958904,38.3123288 81.0082192,38.5753425 82.7616438,38.5753425 L82.7616438,39.1890411 C81.9726027,39.1890411 81.0958904,39.1890411 80.3068493,39.1013699 C79.430137,39.1890411 78.6410959,39.1890411 77.8520548,39.1890411 L77.8520548,38.5753425 C79.5178082,38.5753425 79.5178082,38.3123288 79.5178082,37.4356164 L79.5178082,28.9315068 C79.5178082,27.9671233 79.5178082,27.7041096 77.8520548,27.7041096 L77.8520548,27.090411 C78.7287671,27.1780822 79.5178082,27.1780822 80.3068493,27.1780822 C81.4465753,27.1780822 82.6739726,27.1780822 83.9013699,27.090411 C86.0931507,27.090411 87.3205479,27.7041096 87.3205479,30.1589041 C87.3205479,33.4027397 85.4794521,33.8410959 82.6739726,33.8410959 L81.0958904,33.8410959 L81.0958904,37.4356164 Z" id="Shape" fill="#231F20"></path>
            <path d="M97.8410959,33.2273973 L96.0876712,28.7561644 L94.1589041,33.4027397 L97.9287671,33.4027397 L97.8410959,33.2273973 Z M97.139726,27.1780822 L100.821918,36.7342466 C100.99726,37.260274 101.435616,38.7506849 102.838356,38.6630137 L102.838356,39.2767123 L100.471233,39.2767123 L98.0164384,39.2767123 L98.0164384,38.6630137 C98.0164384,38.6630137 99.5068493,38.6630137 99.5068493,37.9616438 C99.5068493,37.6109589 99.4191781,37.3479452 99.2438356,37.0849315 L98.1041096,34.1041096 L93.8958904,34.1041096 L92.7561644,37.0849315 C92.6684932,37.3479452 92.6684932,37.6109589 92.6684932,37.8739726 C92.6684932,38.6630137 93.5452055,38.6630137 94.0712329,38.6630137 L94.0712329,39.2767123 L92.0547945,39.2767123 L89.9506849,39.2767123 L89.9506849,38.6630137 C90.5643836,38.5753425 90.8273973,38.6630137 91.2657534,38.1369863 C91.5287671,37.8739726 91.9671233,36.6465753 92.1424658,36.2958904 L95.9123288,27.1780822 L97.139726,27.1780822 Z" id="Shape" fill="#231F20"></path>
            <path d="M111.517808,32.4383562 C113.183562,33.0520548 114.673973,33.8410959 114.673973,35.769863 C114.673973,38.6630137 112.306849,39.3643836 109.852055,39.3643836 C108.624658,39.3643836 107.309589,39.1890411 106.082192,38.6630137 L106.082192,35.5068493 L107.221918,35.5068493 C107.39726,37.1726027 106.958904,38.7506849 110.027397,38.7506849 C111.605479,38.7506849 113.008219,38.0493151 113.008219,36.2958904 C113.008219,34.3671233 111.079452,33.9287671 109.589041,33.4027397 C107.923288,32.7890411 106.520548,32.2630137 106.520548,30.1589041 C106.520548,27.8794521 108.449315,26.8273973 110.553425,26.8273973 C111.693151,26.8273973 112.832877,27.0027397 114.060274,27.4410959 L114.060274,30.3342466 L113.09589,30.3342466 C113.008219,28.9315068 113.271233,27.4410959 110.641096,27.4410959 C109.238356,27.4410959 108.09863,28.0547945 108.09863,29.6328767 C108.09863,30.6849315 108.624658,31.2109589 109.50137,31.5616438 L111.517808,32.4383562 Z" id="Shape" fill="#231F20"></path>
            <path d="M124.756164,32.2630137 C126.421918,32.8767123 127.912329,33.5780822 127.912329,35.5945205 C127.912329,38.4876712 125.545205,39.1890411 123.090411,39.1890411 C121.863014,39.1890411 120.547945,39.0136986 119.320548,38.4876712 L119.320548,35.3315068 L120.460274,35.3315068 C120.635616,36.9972603 120.19726,38.5753425 123.265753,38.5753425 C124.843836,38.5753425 126.246575,37.8739726 126.246575,36.1205479 C126.246575,34.1917808 124.317808,33.7534247 122.827397,33.2273973 C121.161644,32.6136986 119.758904,32.0876712 119.758904,29.9835616 C119.758904,27.6164384 121.687671,26.6520548 123.791781,26.6520548 C124.931507,26.6520548 126.071233,26.8273973 127.29863,27.2657534 L127.29863,30.1589041 L126.334247,30.1589041 C126.246575,28.7561644 126.509589,27.2657534 123.879452,27.2657534 C122.476712,27.2657534 121.336986,27.8794521 121.336986,29.4575342 C121.336986,30.4219178 121.863014,31.0356164 122.739726,31.3863014 L124.756164,32.2630137 Z" id="Shape" fill="#231F20"></path>
            <path d="M59.0027397,47.3424658 C59.0027397,46.9917808 59.0027397,46.9041096 58.2136986,46.9041096 L58.2136986,46.6410959 C58.6520548,46.7287671 59.0027397,46.7287671 59.3534247,46.7287671 C59.7041096,46.7287671 59.9671233,46.7287671 60.230137,46.6410959 L60.230137,46.9041096 C59.6164384,46.9041096 59.6164384,46.9917808 59.6164384,47.3424658 L59.6164384,47.9561644 L59.6164384,48.2191781 C59.0027397,48.3945205 58.3890411,48.569863 57.7753425,48.569863 C56.109589,48.569863 55.4958904,47.6931507 55.4958904,46.1150685 C55.4958904,44.4493151 56.1972603,43.660274 57.9506849,43.660274 C58.5643836,43.660274 59.090411,43.7479452 59.6164384,43.9232877 L59.6164384,45.0630137 L59.2657534,45.0630137 C59.1780822,44.0986301 58.9150685,43.9232877 57.9506849,43.9232877 C56.5479452,43.9232877 56.2849315,45.0630137 56.2849315,46.2027397 C56.2849315,47.5178082 56.6356164,48.3945205 58.0383562,48.3945205 C58.3013699,48.3945205 58.6520548,48.3068493 59.0027397,48.1315068 L59.0027397,47.3424658 Z" id="Shape" fill="#231F20"></path>
            <path d="M67.2438356,45.939726 L67.5945205,45.939726 C68.2958904,45.939726 68.9972603,45.939726 68.9972603,44.9753425 C68.9972603,44.2739726 68.6465753,44.0986301 67.9452055,44.0986301 L67.2438356,44.0986301 L67.2438356,45.939726 Z M67.2438356,47.7808219 C67.2438356,48.1315068 67.1561644,48.3068493 67.8575342,48.3068493 L67.8575342,48.4821918 L66.8931507,48.4821918 L65.9287671,48.4821918 L65.9287671,48.3068493 C66.5424658,48.3068493 66.5424658,48.1315068 66.5424658,47.7808219 L66.5424658,44.4493151 C66.5424658,44.0986301 66.5424658,44.0109589 65.9287671,44.0109589 L65.9287671,43.7479452 L66.8931507,43.7479452 L68.2082192,43.7479452 C69.0849315,43.7479452 69.6109589,43.8356164 69.6109589,44.8 C69.6109589,45.6767123 69.1726027,45.939726 68.4712329,46.0273973 C68.6465753,46.3780822 69.4356164,47.6054795 69.6109589,47.8684932 C69.7863014,48.0438356 69.9616438,48.3068493 70.3123288,48.3068493 L70.3123288,48.4821918 L69.7863014,48.4821918 L69.260274,48.4821918 C68.8219178,47.7808219 67.8575342,46.2027397 67.5945205,46.1150685 C67.4191781,46.0273973 67.2438356,46.0273973 67.1561644,46.0273973 L67.1561644,47.7808219 L67.2438356,47.7808219 Z" id="Shape" fill="#231F20"></path>
            <path d="M76.9753425,46.1150685 C76.9753425,47.2547945 77.2383562,48.3068493 78.6410959,48.3068493 C80.0438356,48.3068493 80.3068493,47.2547945 80.3068493,46.1150685 C80.3068493,44.9753425 80.0438356,43.9232877 78.6410959,43.9232877 C77.1506849,43.8356164 76.9753425,44.9753425 76.9753425,46.1150685 M76.1863014,46.1150685 C76.1863014,44.4493151 76.8,43.660274 78.5534247,43.660274 C80.3945205,43.660274 80.9205479,44.3616438 80.9205479,46.1150685 C80.9205479,47.8684932 80.4821918,48.569863 78.5534247,48.569863 C76.8,48.569863 76.1863014,47.8684932 76.1863014,46.1150685" id="Shape" fill="#231F20"></path>
            <path d="M88.2849315,46.9917808 C88.2849315,47.8684932 88.6356164,48.3945205 89.6,48.3945205 C90.6520548,48.3945205 91.090411,48.0438356 91.090411,46.9917808 L91.090411,44.5369863 C91.090411,44.0986301 91.090411,44.0986301 90.3890411,44.0986301 L90.3890411,43.8356164 L91.2657534,43.8356164 L92.1424658,43.8356164 L92.1424658,44.0986301 C91.5287671,44.0986301 91.5287671,44.1863014 91.5287671,44.5369863 L91.5287671,46.9041096 C91.5287671,48.3068493 90.8273973,48.6575342 89.5123288,48.6575342 C88.3726027,48.6575342 87.7589041,48.2191781 87.7589041,47.0794521 L87.7589041,44.5369863 C87.7589041,44.0986301 87.8465753,44.0986301 87.1452055,44.0986301 L87.1452055,43.8356164 L88.0219178,43.8356164 L88.9863014,43.8356164 L88.9863014,44.0986301 C88.3726027,44.0986301 88.3726027,44.1863014 88.3726027,44.5369863 L88.3726027,46.9917808 L88.2849315,46.9917808 Z" id="Shape" fill="#231F20"></path>
            <path d="M99.1561644,46.2027397 L99.5068493,46.2027397 C100.383562,46.2027397 100.909589,46.1150685 100.909589,45.0630137 C100.909589,44.0986301 100.558904,44.0109589 99.769863,44.0109589 L99.1561644,44.0109589 L99.1561644,46.2027397 Z M99.1561644,47.7808219 C99.1561644,48.1315068 99.1561644,48.3068493 99.769863,48.3068493 L99.769863,48.4821918 L98.8054795,48.4821918 L97.8410959,48.4821918 L97.8410959,48.3068493 C98.4547945,48.3068493 98.4547945,48.1315068 98.4547945,47.7808219 L98.4547945,44.4493151 C98.4547945,44.0986301 98.4547945,44.0109589 97.8410959,44.0109589 L97.8410959,43.7479452 L98.8054795,43.7479452 L100.208219,43.7479452 C101.084932,43.7479452 101.610959,44.0109589 101.610959,44.8876712 C101.610959,46.2027397 100.821918,46.3780822 99.6821918,46.3780822 L99.0684932,46.3780822 L99.0684932,47.7808219 L99.1561644,47.7808219 Z" id="Shape" fill="#231F20"></path>
            <path d="M27.4410959,21.6547945 C27.2657534,21.6547945 27.090411,21.7424658 26.8273973,21.5671233 C27.0027397,21.3917808 27.2657534,21.5671233 27.4410959,21.3917808 L27.4410959,21.6547945 Z" id="Shape" fill="#FBB53D"></path>
            <path d="M28.5808219,20.5150685 C28.230137,20.5150685 27.7917808,20.5150685 27.4410959,20.8657534 L27.3534247,20.7780822 C27.4410959,20.4273973 28.230137,20.6027397 28.4931507,20.339726 L28.4931507,20.5150685 L28.5808219,20.5150685 Z" id="Shape" fill="#FBB53D"></path>
            <path d="M30.1589041,20.5150685 C29.9835616,20.4273973 29.8082192,20.6027397 29.6328767,20.4273973 C29.7205479,20.339726 29.9835616,20.5150685 30.1589041,20.339726 L30.1589041,20.5150685 Z" id="Shape" fill="#FBB53D"></path>
            <polygon id="Shape" fill="#FBB53D" points="29.1068493 20.8657534 29.1945205 20.5150685 29.0191781 20.4273973"></polygon>
        </g>
    </g>
</svg>
