<svg width="128px" height="128px" viewBox="0 0 128 128" version="1.1" xmlns="http://www.w3.org/2000/svg" xmlns:xlink="http://www.w3.org/1999/xlink">
    <g id="Page-1" stroke="none" stroke-width="1" fill="none" fill-rule="evenodd">
        <g id="done">
            <polygon id="Shape" points="0 0 128 0 128 128 0 128"></polygon>
            <polygon id="Shape" stroke="currentColor" stroke-width="4" fill="currentColor" fill-rule="nonzero" points="48 86.4 25.6 64 18.1333333 71.4666667 48 101.333333 112 37.3333333 104.533333 29.8666667"></polygon>
        </g>
    </g>
</svg>
