<svg width="128px" height="128px" viewBox="0 0 128 128" version="1.1" xmlns="http://www.w3.org/2000/svg" xmlns:xlink="http://www.w3.org/1999/xlink">
    <g id="Page-1" stroke="none" stroke-width="1" fill="none" fill-rule="evenodd" opacity="0.400000006">
        <g id="cafe" transform="translate(2.000000, 0.000000)" fill="currentColor" fill-rule="nonzero">
            <path d="M120.15975,58.66425 C118.691,58.66425 117.49575,59.8595 117.49575,61.332 L117.49575,90.66125 L93.4965,90.66125 C92.02375,90.66125 90.8325,91.85625 90.8325,93.333 L90.8325,101.333 L90.8325,125.332 C90.8325,126.80075 92.024,127.996 93.4965,127.996 C94.969,127.996 96.1605,126.80075 96.1605,125.332 L96.1605,103.99675 L117.49575,103.99675 L117.49575,125.332 C117.49575,126.80075 118.691,127.996 120.15975,127.996 C121.636,127.996 122.8315,126.80075 122.8315,125.332 L122.8315,101.333 L122.8315,93.333 L122.8315,61.332 C122.83125,59.8595 121.636,58.66425 120.15975,58.66425 Z M117.4955,98.661 L96.16025,98.661 L96.16025,95.997 L117.4955,95.997 L117.4955,98.661 Z" id="Shape"></path>
            <path d="M29.49825,90.66125 L5.499,90.66125 L5.499,61.332 C5.499,59.85925 4.30575,58.66425 2.833,58.66425 C1.3605,58.66425 0.16525,59.8595 0.16525,61.332 L0.16525,93.333 L0.16525,101.333 L0.16525,125.332 C0.16525,126.80075 1.3605,127.996 2.833,127.996 C4.30575,127.996 5.499,126.80075 5.499,125.332 L5.499,103.99675 L26.83225,103.99675 L26.83225,125.332 C26.83225,126.80075 28.0255,127.996 29.49825,127.996 C30.971,127.996 32.16425,126.80075 32.16425,125.332 L32.16425,101.333 L32.16425,93.333 C32.16425,91.8565 30.971,90.66125 29.49825,90.66125 Z M26.83225,98.661 L5.499,98.661 L5.499,95.997 L26.83225,95.997 L26.83225,98.661 Z" id="Shape"></path>
            <path d="M121.0735,26.8255 L64.16325,6.13275 L64.16325,2.666 C64.16325,1.19325 62.97,0 61.49725,0 C60.02475,0 58.83125,1.19325 58.83125,2.666 L58.83125,6.13275 L1.921,26.8255 C0.8685,27.21025 0.16525,28.212 0.16525,29.33325 L0.16525,34.66525 C0.16525,36.13775 1.3605,37.333 2.833,37.333 L58.83125,37.333 L58.83125,71.998 L24.1645,71.998 C22.69175,71.998 21.4985,73.19325 21.4985,74.662 L21.4985,82.66175 C21.4985,84.13825 22.69175,85.33375 24.1645,85.33375 L53.4975,85.33375 L53.4975,122.66075 L45.49775,122.66075 C44.02525,122.66075 42.83175,123.85575 42.83175,125.3325 C42.83175,126.80125 44.025,127.9965 45.49775,127.9965 L56.1635,127.9965 L66.83325,127.9965 L77.49675,127.9965 C78.9695,127.9965 80.16075,126.80125 80.16075,125.3325 C80.16075,123.856 78.96925,122.66075 77.49675,122.66075 L69.497,122.66075 L69.497,85.3335 L98.83225,85.3335 C100.301,85.3335 101.496,84.13825 101.496,82.6615 L101.496,74.66175 C101.496,73.193 100.301,71.99775 98.83225,71.99775 L64.16325,71.99775 L64.16325,37.33275 L120.1595,37.33275 C121.63575,37.33275 122.83125,36.1375 122.83125,34.665 L122.83125,29.333 C122.83125,28.212 122.12825,27.21025 121.0735,26.8255 Z M64.16325,122.66025 L58.83125,122.66025 L58.83125,85.3335 L64.16325,85.3335 L64.16325,122.66025 Z M96.16025,77.3335 L96.16025,79.9975 L66.83325,79.9975 L56.1635,79.9975 L26.83225,79.9975 L26.83225,77.3335 L96.16025,77.3335 Z M117.4955,31.999 L5.499,31.999 L5.499,31.20025 L61.49725,10.8375 L117.4955,31.20025 L117.4955,31.999 Z" id="Shape"></path>
        </g>
    </g>
</svg>
