<?xml version="1.0" encoding="utf-8"?>
<!-- Generator: Adobe Illustrator 18.1.1, SVG Export Plug-In . SVG Version: 6.00 Build 0)  -->
<svg version="1.1" id="Слой_1" xmlns="http://www.w3.org/2000/svg" xmlns:xlink="http://www.w3.org/1999/xlink" x="0px" y="0px"
	 viewBox="0 0 128 128" enable-background="new 0 0 128 128" xml:space="preserve">
<g>
	<path d="M51.6,60.8c0.3,0.2,0.7,0.3,1.1,0.3c0.4,0,0.8-0.1,1.2-0.4l25-15.9c0.7-0.4,1.1-1.1,1.1-1.9s-0.4-1.5-1.1-1.9l-25-15.9
		c-0.7-0.4-1.6-0.5-2.3-0.1c-0.7,0.4-1.2,1.2-1.2,2v31.8C50.4,59.6,50.8,60.4,51.6,60.8z M54.9,31.2l18.5,11.8L54.9,54.7V31.2z"/>
	<path d="M2.7,2.1v124.8h122.5V2.1H2.7z M120.7,6.6v74.9H7.3V6.6H120.7z M7.3,122.4V86h113.5v36.3H7.3z"/>
	<path d="M109.4,101.9H54.9v-4.5c0-1.3-1-2.3-2.3-2.3s-2.3,1-2.3,2.3v4.5h-9.1c-1.3,0-2.3,1-2.3,2.3s1,2.3,2.3,2.3h9.1v4.5
		c0,1.3,1,2.3,2.3,2.3s2.3-1,2.3-2.3v-4.5h54.5c1.3,0,2.3-1,2.3-2.3S110.6,101.9,109.4,101.9z"/>
	<path d="M18.6,95.1c-1.3,0-2.3,1-2.3,2.3V111c0,1.3,1,2.3,2.3,2.3s2.3-1,2.3-2.3V97.4C20.9,96.1,19.9,95.1,18.6,95.1z"/>
	<path d="M27.7,95.1c-1.3,0-2.3,1-2.3,2.3V111c0,1.3,1,2.3,2.3,2.3s2.3-1,2.3-2.3V97.4C30,96.1,28.9,95.1,27.7,95.1z"/>
</g>
</svg>
