<?xml version="1.0" encoding="utf-8"?>
<!-- Generator: Adobe Illustrator 18.1.1, SVG Export Plug-In . SVG Version: 6.00 Build 0)  -->
<svg version="1.1" id="Слой_1" xmlns="http://www.w3.org/2000/svg" xmlns:xlink="http://www.w3.org/1999/xlink" x="0px" y="0px"
	 viewBox="0 0 128 128" enable-background="new 0 0 128 128" xml:space="preserve">
<g>
	<path d="M120.3,7.8c-4.3-4.3-10-6.8-16-6.8H23.6C11.1,1,1,11.5,1,23.9v80.8C1,117.2,11.1,127,23.6,127h80.8
		c12.4,0,22.6-9.8,22.6-22.2V23.9C127,17.9,124.6,12.1,120.3,7.8z M121,105c0,8.8-7.1,16-16,16H24c-8.8,0-16-7.1-16-16V24
		c0-8.8,7.1-16,16-16H105c8.8,0,16,7.1,16,16V105z"/>
	<path d="M64,27.2c-10.5,0-19,8.5-19,19c0,1.8,1.5,3.3,3.3,3.3s3.3-1.5,3.3-3.3c0-6.9,5.6-12.4,12.4-12.4c6.9,0,12.4,5.6,12.4,12.4
		c0,4-2.8,6.7-7.2,10.4C65.1,60,61,63.5,61,69.1v12.9c0,1.8,1.2,3.3,3,3.3s3-1.5,3-3.3V69.1c0-2.6,2.9-4.8,6.1-7.5
		c4.1-3.4,9.8-8,9.8-15.5c0-5.1-1.9-9.8-5.5-13.4C73.8,29.2,69,27.2,64,27.2z"/>
	<path d="M64,92.7c-2.4,0-4.4,2-4.4,4.4s2,4.4,4.4,4.4c2.4,0,4.4-2,4.4-4.4S66.4,92.7,64,92.7z"/>
</g>
</svg>
