
<svg width="128px" height="128px" viewBox="0 0 128 128" version="1.1" xmlns="http://www.w3.org/2000/svg" xmlns:xlink="http://www.w3.org/1999/xlink">
    <!-- Generator: Sketch 47.1 (45422) - http://www.bohemiancoding.com/sketch -->
    <desc>Created with Sketch.</desc>
    <defs></defs>
    <g id="Page-1" stroke="none" stroke-width="1" fill="none" fill-rule="evenodd">
        <g id="close" fill-rule="nonzero" fill="#000000">
            <polygon id="Shape" points="128 12.8914286 115.108571 0 64 51.1085714 12.8914286 0 0 12.8914286 51.1085714 64 0 115.108571 12.8914286 128 64 76.8914286 115.108571 128 128 115.108571 76.8914286 64"></polygon>
        </g>
    </g>
</svg>
