<?xml version="1.0" encoding="utf-8"?>
<!-- Generator: Adobe Illustrator 18.1.1, SVG Export Plug-In . SVG Version: 6.00 Build 0)  -->
<svg version="1.1" id="Слой_1" xmlns="http://www.w3.org/2000/svg" xmlns:xlink="http://www.w3.org/1999/xlink" x="0px" y="0px"
	 viewBox="0 0 128 128" enable-background="new 0 0 128 128" xml:space="preserve">
<path fill="currentColor" d="M110.3,46.4c-1.5,1.5-3.9,1.5-5.4,0L90.4,32.1v72.9c0,2.1-1.7,3.8-3.8,3.8c0,0,0,0-0.1,0c0,0,0,0-0.1,0
	c-2.1,0-3.8-1.7-3.8-3.8V32.1L69,45.7c-1.5,1.5-3.9,1.5-5.4,0c-1.5-1.5-1.5-3.9,0-5.4l20.1-20.1c0.4-0.4,0.8-0.6,1.2-0.8
	c0.1,0,0.1,0,0.1,0c0.4-0.2,0.9-0.3,1.4-0.3c0.1,0,0.1,0,0.1,0c0,0,0.1,0,0.1,0c0.5,0,1,0.1,1.4,0.3c0,0,0,0,0.1,0
	c0.4,0.2,0.9,0.4,1.2,0.8l20.8,20.8C111.8,42.6,111.8,44.9,110.3,46.4z"/>
<path fill="currentColor" d="M19.4,81.6c1.5-1.5,3.9-1.5,5.4,0l14.5,14.3V23c0-2.1,1.7-3.8,3.8-3.8c0,0,0,0,0.1,0c0,0,0,0,0.1,0
	c2.1,0,3.8,1.7,3.8,3.8v72.9l13.7-13.5c1.5-1.5,3.9-1.5,5.4,0c1.5,1.5,1.5,3.9,0,5.4L46,107.8c-0.4,0.4-0.8,0.6-1.2,0.8
	c-0.1,0-0.1,0-0.1,0c-0.4,0.2-0.9,0.3-1.4,0.3c-0.1,0-0.1,0-0.1,0c0,0-0.1,0-0.1,0c-0.5,0-1-0.1-1.4-0.3c0,0,0,0-0.1,0
	c-0.4-0.2-0.9-0.4-1.2-0.8L19.4,87C17.9,85.5,17.9,83.1,19.4,81.6z"/>
</svg>
