
<svg width="128px" height="128px" viewBox="0 0 128 128" version="1.1" xmlns="http://www.w3.org/2000/svg" xmlns:xlink="http://www.w3.org/1999/xlink">
    <!-- Generator: Sketch 47.1 (45422) - http://www.bohemiancoding.com/sketch -->
    <desc>Created with Sketch.</desc>
    <defs></defs>
    <g id="Page-1" stroke="none" stroke-width="1" fill="none" fill-rule="evenodd">
        <g id="user2">
            <path d="M64,31.4666667 C70.1866667,31.4666667 75.2,36.48 75.2,42.6666667 C75.2,48.8533333 70.1866667,53.8666667 64,53.8666667 C57.8133333,53.8666667 52.8,48.8533333 52.8,42.6666667 C52.8,36.48 57.8133333,31.4666667 64,31.4666667 L64,31.4666667 Z M64,79.4666667 C79.84,79.4666667 96.5333333,87.2533333 96.5333333,90.6666667 L96.5333333,96.5333333 L31.4666667,96.5333333 L31.4666667,90.6666667 C31.4666667,87.2533333 48.16,79.4666667 64,79.4666667 L64,79.4666667 Z M64,21.3333333 C52.2133333,21.3333333 42.6666667,30.88 42.6666667,42.6666667 C42.6666667,54.4533333 52.2133333,64 64,64 C75.7866667,64 85.3333333,54.4533333 85.3333333,42.6666667 C85.3333333,30.88 75.7866667,21.3333333 64,21.3333333 Z M64,69.3333333 C49.76,69.3333333 21.3333333,76.48 21.3333333,90.6666667 L21.3333333,106.666667 L106.666667,106.666667 L106.666667,90.6666667 C106.666667,76.48 78.24,69.3333333 64,69.3333333 Z" id="Shape" fill="#000000" fill-rule="nonzero"></path>
            <polygon id="Shape" points="0 0 128 0 128 128 0 128"></polygon>
        </g>
    </g>
</svg>
