<svg xmlns="http://www.w3.org/2000/svg" width="128" height="128" viewBox="0 0 128 128">
  <g fill="#000000" transform="translate(19 19)">
    <path d="M45,84.6902655 C66.9203283,84.6902655 84.6902655,66.9203283 84.6902655,45 C84.6902655,23.0796717 66.9203283,5.30973451 45,5.30973451 C23.0796717,5.30973451 5.30973451,23.0796717 5.30973451,45 C5.30973451,66.9203283 23.0796717,84.6902655 45,84.6902655 Z M45,90 C20.1471863,90 0,69.8528137 0,45 C0,20.1471863 20.1471863,0 45,0 C69.8528137,0 90,20.1471863 90,45 C90,69.8528137 69.8528137,90 45,90 Z"/>
    <path d="M41.5633858,74.2035398 L21.4252844,22.2273835 L28.8707092,22.2273835 L42.3788371,59.9863238 C43.4661109,63.0117814 44.3760982,65.8481054 45.1088262,68.4953808 C45.9124634,65.6590143 46.8460866,62.8226903 47.9097242,59.9863238 L61.9496681,22.2273835 L68.9696401,22.2273835 L48.6188123,74.2035398 L41.5633858,74.2035398 Z"/>
  </g>
</svg>
