
<svg width="128px" height="128px" viewBox="0 0 128 128" version="1.1" xmlns="http://www.w3.org/2000/svg" xmlns:xlink="http://www.w3.org/1999/xlink">
    <!-- Generator: Sketch 47.1 (45422) - http://www.bohemiancoding.com/sketch -->
    <desc>Created with Sketch.</desc>
    <defs></defs>
    <g id="Page-1" stroke="none" stroke-width="1" fill="none" fill-rule="evenodd">
        <g id="001-xlsx-file-format-extension" transform="translate(7.000000, 0.000000)" fill-rule="nonzero" fill="currentColor">
            <path d="M106.131818,45.7258434 L103.062149,45.7258434 L103.062149,30.9149144 C103.062149,30.8225865 103.047694,30.7295592 103.036736,30.635133 C103.03184,30.047592 102.843454,29.4700765 102.440801,29.0124007 L77.7925246,0.857296903 C77.7848306,0.850069217 77.7776029,0.847504554 77.7727067,0.839810565 C77.6258215,0.675672131 77.4546885,0.539045537 77.2730638,0.421071038 C77.2196721,0.385165756 77.1655811,0.355089253 77.1093916,0.323380692 C76.952714,0.23828051 76.7860109,0.166703097 76.614878,0.115176685 C76.5682477,0.103052823 76.5265137,0.0839344262 76.4803497,0.0718105647 C76.2940619,0.0275118397 76.1007796,0 75.9051658,0 L15.3313224,0 C12.5654499,0 10.3183388,2.24967577 10.3183388,5.01321676 L10.3183388,45.7244444 L7.24913661,45.7244444 C3.29232787,45.7244444 0.0839344262,48.9316721 0.0839344262,52.8898798 L0.0839344262,90.1502368 C0.0839344262,94.104714 3.29232787,97.3152058 7.24913661,97.3152058 L10.3183388,97.3152058 L10.3183388,122.821712 C10.3183388,125.585486 12.5654499,127.834696 15.3313224,127.834696 L98.0477668,127.834696 C100.811308,127.834696 103.06075,125.585486 103.06075,122.821712 L103.06075,97.315439 L106.130419,97.315439 C110.086062,97.315439 113.294922,94.1063461 113.294922,90.1504699 L113.294922,52.8912787 C113.295155,48.9319053 110.088393,45.7258434 106.131818,45.7258434 Z M15.3313224,5.01321676 L73.3985574,5.01321676 L73.3985574,30.6612459 C73.3985574,32.0461639 74.5216466,33.1678543 75.9051658,33.1678543 L98.048,33.1678543 L98.048,45.7256102 L15.3313224,45.7256102 L15.3313224,5.01321676 Z M66.1160801,73.3635847 C61.1909945,71.6478251 57.9772386,68.9232204 57.9772386,64.6101566 C57.9772386,59.5512423 62.1996066,55.6811658 69.195541,55.6811658 C72.5368306,55.6811658 75.0017049,56.3838834 76.7594317,57.1763643 L75.2646995,62.5854718 C74.0777268,62.015184 71.9665428,61.1779381 69.0633443,61.1779381 C66.1601457,61.1779381 64.7528452,62.4980401 64.7528452,64.0377705 C64.7528452,65.9297923 66.4247723,66.7647067 70.2505501,68.2160729 C75.4838616,70.1523934 77.9475701,72.8790965 77.9475701,77.0573989 C77.9475701,82.0288816 74.1203934,86.2517158 65.9827177,86.2517158 C62.5964299,86.2517158 59.2537413,85.372969 57.5820474,84.4478251 L58.9443497,78.9058215 C60.7484736,79.8286339 63.520408,80.7540109 66.3783752,80.7540109 C69.4601676,80.7540109 71.0852313,79.478674 71.0852313,77.5425865 C71.0863971,75.6964954 69.6790965,74.6386885 66.1160801,73.3635847 Z M54.7711767,80.1806922 L54.7711767,85.8129253 L36.2498798,85.8129253 L36.2498798,56.1619235 L42.9825865,56.1619235 L42.9825865,80.1806922 L54.7711767,80.1806922 Z M14.7437814,85.8129253 L7.09036066,85.8129253 L15.6675264,70.8089472 L7.39695446,56.1607577 L15.0958397,56.1607577 L17.6896466,61.5721967 C18.5695592,63.3758543 19.2298434,64.8255883 19.9344262,66.499847 L20.0199927,66.499847 C20.7257413,64.6078251 21.2969617,63.2881894 22.0425792,61.5721967 L24.5503534,56.1607577 L32.2040073,56.1607577 L23.8460036,70.6315191 L32.6451293,85.8103607 L24.9040437,85.8103607 L22.2193078,80.4427541 C21.1213989,78.3782004 20.4170492,76.837071 19.580969,75.1213115 L19.4935373,75.1213115 C18.8768525,76.837071 18.1307687,78.3782004 17.2060911,80.4427541 L14.7437814,85.8129253 Z M98.048,121.464306 L15.3313224,121.464306 L15.3313224,97.315439 L98.0477668,97.315439 L98.0477668,121.464306 L98.048,121.464306 Z M98.0932313,85.8129253 L95.4091949,80.4453188 C94.3098871,78.3788998 93.6062368,76.8396357 92.7701566,75.123643 L92.6848233,75.123643 C92.0679053,76.8396357 91.3190237,78.3788998 90.3936466,80.4453188 L87.9336685,85.8129253 L80.2779162,85.8129253 L88.855082,70.8089472 L80.5849763,56.1607577 L88.2836284,56.1607577 L90.8806995,61.5721967 C91.7596794,63.3758543 92.4178652,64.8255883 93.1231475,66.499847 L93.2110455,66.499847 C93.9135301,64.6078251 94.4838179,63.2881894 95.2326995,61.5721967 L97.739541,56.1607577 L105.39506,56.1607577 L97.0368233,70.6315191 L105.834317,85.8103607 L98.0932313,85.8103607 L98.0932313,85.8129253 Z" id="Shape"></path>
        </g>
    </g>
</svg>
